%!PS-Adobe-3.0 EPSF-3.0
%%Creator: inkscape 0.45.1
%%Pages: 1
%%Orientation: Portrait
%%BoundingBox: 5 556 278 824
%%HiResBoundingBox: 5.8871758 556.46425 277.58586 823.06823
%%EndComments
%%Page: 1 1
0 842 translate
0.8 -0.8 scale
0 0 0 setrgbcolor
[] 0 setdash
1 setlinewidth
0 setlinejoin
0 setlinecap
gsave [1 0 0 1 0 0] concat
0 0 0 setrgbcolor
[] 0 setdash
1 setlinewidth
0 setlinejoin
0 setlinecap
newpath
29.294424 24.026891 moveto
29.294424 351.31632 lineto
346.48232 352.32647 lineto
stroke
gsave [4.8984254e-17 0.8 -0.8 4.8984254e-17 29.294424 34.026891] concat
gsave
0 0 0 setrgbcolor
newpath
0 0 moveto
5 -5 lineto
-12.5 0 lineto
5 5 lineto
0 0 lineto
closepath
eofill
grestore
0 0 0 setrgbcolor
[] 0 setdash
1.25 setlinewidth
0 setlinejoin
0 setlinecap
newpath
0 0 moveto
5 -5 lineto
-12.5 0 lineto
5 5 lineto
0 0 lineto
closepath
stroke
grestore
gsave [-0.79999594 -0.0025477514 0.0025477514 -0.79999594 336.48237 352.29462] concat
gsave
0 0 0 setrgbcolor
newpath
0 0 moveto
5 -5 lineto
-12.5 0 lineto
5 5 lineto
0 0 lineto
closepath
eofill
grestore
0 0 0 setrgbcolor
[] 0 setdash
1.25 setlinewidth
0 setlinejoin
0 setlinecap
newpath
0 0 moveto
5 -5 lineto
-12.5 0 lineto
5 5 lineto
0 0 lineto
closepath
stroke
grestore
gsave
1 1 1 setrgbcolor
newpath
29.294424 181.61069 moveto
341.43156 181.61069 lineto
eofill
grestore
0 0 0 setrgbcolor
[] 0 setdash
0.30000001 setlinewidth
0 setlinejoin
0 setlinecap
newpath
29.294424 181.61069 moveto
341.43156 181.61069 lineto
stroke
0 0 0 setrgbcolor
[] 0 setdash
0.2 setlinewidth
0 setlinejoin
0 setlinecap
newpath
29.294424 264.42289 moveto
340.42141 265.43304 lineto
stroke
0 0 0 setrgbcolor
[] 0 setdash
0.2 setlinewidth
0 setlinejoin
0 setlinecap
newpath
28.284271 310.91021 moveto
342.44171 311.92037 lineto
stroke
0.99215686 0.05882353 0.05882353 setrgbcolor
[] 0 setdash
2 setlinewidth
0 setlinejoin
0 setlinecap
newpath
29.294424 350.30616 moveto
31.298625 345.81475 37.457006 343.19441 43.436559 340.20464 curveto
48.114673 337.86558 52.208678 338.10452 56.568543 339.19449 curveto
62.668741 340.71954 65.384245 339.51594 70.710678 338.18433 curveto
75.895175 336.88821 77.740767 333.39635 82.832509 332.12342 curveto
87.295576 331.00765 92.139793 338.18433 96.974644 338.18433 curveto
102.81156 338.18433 106.90193 339.10737 111.11678 341.21479 curveto
115.99921 343.656 121.41675 335.05465 125.25892 333.13357 curveto
129.93013 330.79796 137.69193 335.81454 140.4112 337.17418 curveto
145.7243 339.83073 151.06936 339.56041 156.57364 338.18433 curveto
162.63893 336.66801 168.17538 332.88854 173.74624 330.10311 curveto
179.12821 327.41213 184.64586 327.47171 189.90868 330.10311 curveto
192.76026 331.5289 202.82512 323.84354 206.07112 323.03204 curveto
212.97189 321.30685 214.37681 323.64935 219.2031 326.0625 curveto
224.05453 328.48822 231.27211 330.84752 236.3757 332.12342 curveto
244.09446 334.05311 245.09928 326.2464 251.52798 323.03204 curveto
257.99193 319.80007 258.24345 317.13477 265.67012 318.99143 curveto
270.75848 320.26352 275.16061 331.64542 277.79195 335.15388 curveto
281.89557 340.62537 286.47047 343.2351 292.94424 343.2351 curveto
298.84043 343.2351 301.89994 344.96895 307.08637 346.26555 curveto
311.75261 347.43211 311.82182 341.05713 318.19805 344.24525 curveto
322.95292 346.62268 325.28663 347.29322 328.29958 350.30616 curveto
328.63629 350.64288 328.97301 350.9796 329.30973 351.31632 curveto
stroke
0.090196081 0 1 setrgbcolor
[] 0 setdash
2 setlinewidth
0 setlinejoin
0 setlinecap
newpath
30.304576 331.11327 moveto
31.187528 331.99622 44.829258 331.11327 49.497475 331.11327 curveto
55.012075 331.11327 57.618759 330.12314 63.63961 333.13357 curveto
67.733408 335.18047 70.912932 340.35633 74.751288 343.2351 curveto
77.306346 345.15139 87.510947 342.8231 89.903577 342.22494 curveto
95.739046 340.76608 100.28612 344.06297 105.05586 345.2554 curveto
111.0147 346.74511 111.72825 349.29601 118.18785 349.29601 curveto
123.104 349.29601 128.81439 347.14445 132.32998 346.26555 curveto
136.73492 345.16432 142.91491 346.26555 147.48227 346.26555 curveto
153.05259 346.26555 157.18315 346.26555 162.63456 346.26555 curveto
168.70726 346.26555 171.48747 345.56755 176.7767 344.24525 curveto
181.6385 343.0298 187.20549 346.34737 190.91883 347.27571 curveto
194.48833 348.16808 200.26872 346.26555 205.06097 346.26555 curveto
211.43013 346.26555 213.65066 345.75708 217.1828 342.22494 curveto
221.5854 337.82234 223.53326 339.04643 225.26402 332.12342 curveto
227.47757 323.26919 225.26402 311.06213 225.26402 301.81884 curveto
225.26402 290.39834 227.28432 278.85978 227.28432 267.47365 curveto
227.28432 260.02714 228.29448 252.03121 228.29448 244.24015 curveto
228.29448 237.83394 227.28432 233.89335 227.28432 227.06755 curveto
227.28432 221.77081 228.29448 216.60996 228.29448 210.90511 curveto
228.29448 205.90174 230.31478 200.73701 230.31478 195.75282 curveto
230.31478 188.68551 234.1711 190.51777 236.3757 192.72237 curveto
238.16697 194.51364 237.69966 206.09943 238.396 208.88481 curveto
239.61908 213.77711 239.40615 218.23228 239.40615 223.02694 curveto
239.40615 229.08786 239.40615 235.14877 239.40615 241.20969 curveto
239.40615 249.03798 240.41631 258.01127 240.41631 266.4635 curveto
240.41631 272.52442 240.41631 278.58533 240.41631 284.64625 curveto
240.41631 291.04388 240.41631 297.44151 240.41631 303.83915 curveto
240.41631 308.88991 240.41631 313.94067 240.41631 318.99143 curveto
240.41631 324.41753 241.42646 329.10712 241.42646 334.14372 curveto
241.42646 338.16927 244.79365 343.57187 245.46707 346.26555 curveto
246.54524 350.57823 250.9079 351.31632 256.57875 351.31632 curveto
258.35772 351.31632 264.42321 344.482 265.67012 343.2351 curveto
267.60398 341.30123 277.0895 344.82725 278.8021 345.2554 curveto
283.5291 346.43715 289.9865 345.21541 291.93409 349.29601 curveto
293.83382 353.27634 316.16607 351.81848 327.28943 350.30616 curveto
stroke
0.027450981 0.3882353 0.027450981 setrgbcolor
[] 0 setdash
2 setlinewidth
0 setlinejoin
0 setlinecap
newpath
29.294424 341.21479 moveto
34.245126 343.34051 38.539197 341.13809 44.446712 338.18433 curveto
49.019613 335.89788 53.077955 332.58355 55.55839 330.10311 curveto
60.526151 325.13535 62.925781 320.95336 66.670068 315.96098 curveto
70.071411 311.42585 72.792558 308.82833 76.771593 304.8493 curveto
81.900493 299.7204 80.95848 297.23659 86.873119 295.75793 curveto
90.23103 294.91845 96.342316 300.49252 98.994949 301.81884 curveto
102.55652 303.59963 104.65165 310.70798 107.07617 313.94067 curveto
111.02585 319.20691 114.55646 319.80343 120.20815 324.0422 curveto
123.17961 326.27079 130.17706 316.09359 132.32998 313.94067 curveto
137.40302 308.86763 138.91894 304.58528 144.45181 301.81884 curveto
151.43216 298.32867 154.56831 301.32125 161.62441 304.8493 curveto
165.81035 306.94227 167.65423 313.89921 170.71578 317.98128 curveto
175.94649 324.95557 177.22032 336.0224 185.86807 338.18433 curveto
192.54925 339.85463 197.62504 341.21479 205.06097 341.21479 curveto
207.96767 341.21479 211.25823 336.12994 215.16249 335.15388 curveto
219.15046 334.15688 224.66153 342.27816 227.28432 344.24525 curveto
231.87272 347.68655 236.9206 340.66989 238.396 339.19449 curveto
242.65559 334.9349 246.86598 339.19449 252.53814 339.19449 curveto
258.67473 339.19449 265.21626 338.82848 270.72088 340.20464 curveto
274.93481 341.25812 277.77961 343.734 280.82241 345.2554 curveto
286.30915 347.99877 288.73996 349.00256 293.95439 350.30616 curveto
297.6992 351.24237 299.78134 353.33662 306.07622 353.33662 curveto
309.99701 353.33662 315.61181 352.32647 320.21836 352.32647 curveto
324.36402 352.32647 327.36768 352.05437 330.31988 351.31632 curveto
stroke
gsave
0 0 0 setrgbcolor
newpath
9.5695019 177.58414 moveto
11.503096 177.58414 lineto
11.503096 170.91031 lineto
9.39958 171.33218 lineto
9.39958 170.25406 lineto
11.491377 169.83218 lineto
12.674971 169.83218 lineto
12.674971 177.58414 lineto
14.608564 177.58414 lineto
14.608564 178.58023 lineto
9.5695019 178.58023 lineto
9.5695019 177.58414 lineto
fill
grestore
gsave
0 0 0 setrgbcolor
newpath
18.768721 169.83218 moveto
19.764814 169.83218 lineto
16.717939 179.69351 lineto
15.721846 179.69351 lineto
18.768721 169.83218 lineto
fill
grestore
gsave
0 0 0 setrgbcolor
newpath
22.079268 177.58414 moveto
26.210127 177.58414 lineto
26.210127 178.58023 lineto
20.655439 178.58023 lineto
20.655439 177.58414 lineto
21.104657 177.11929 21.715984 176.49625 22.489424 175.715 curveto
23.266764 174.92984 23.755045 174.42398 23.954268 174.19742 curveto
24.333169 173.77164 24.596841 173.41227 24.745283 173.11929 curveto
24.897622 172.82242 24.973794 172.53141 24.973799 172.24625 curveto
24.973794 171.78141 24.809731 171.4025 24.481611 171.10953 curveto
24.157388 170.81657 23.73356 170.67008 23.210127 170.67007 curveto
22.83903 170.67008 22.446452 170.73454 22.032393 170.86343 curveto
21.622234 170.99235 21.182782 171.18766 20.714033 171.44937 curveto
20.714033 170.25406 lineto
21.190594 170.06266 21.635906 169.91813 22.049971 169.82047 curveto
22.46403 169.72282 22.842936 169.67399 23.186689 169.67398 curveto
24.092935 169.67399 24.815591 169.90055 25.354658 170.35367 curveto
25.893715 170.8068 26.163245 171.41227 26.163252 172.17007 curveto
26.163245 172.52946 26.094886 172.87125 25.958174 173.19547 curveto
25.825355 173.51578 25.581215 173.89469 25.225752 174.33218 curveto
25.12809 174.44547 24.817544 174.77359 24.294111 175.31656 curveto
23.77067 175.85562 23.032389 176.61148 22.079268 177.58414 curveto
fill
grestore
gsave
0 0 0 setrgbcolor
newpath
7.5491967 264.45724 moveto
9.4827905 264.45724 lineto
9.4827905 257.78342 lineto
7.3792748 258.20529 lineto
7.3792748 257.12717 lineto
9.4710717 256.70529 lineto
10.654665 256.70529 lineto
10.654665 264.45724 lineto
12.588259 264.45724 lineto
12.588259 265.45334 lineto
7.5491967 265.45334 lineto
7.5491967 264.45724 lineto
fill
grestore
gsave
0 0 0 setrgbcolor
newpath
16.748415 256.70529 moveto
17.744509 256.70529 lineto
14.697634 266.56662 lineto
13.70154 266.56662 lineto
16.748415 256.70529 lineto
fill
grestore
gsave
0 0 0 setrgbcolor
newpath
22.291384 257.73654 moveto
19.303103 262.40646 lineto
22.291384 262.40646 lineto
22.291384 257.73654 lineto
21.980837 256.70529 moveto
23.469119 256.70529 lineto
23.469119 262.40646 lineto
24.717165 262.40646 lineto
24.717165 263.39084 lineto
23.469119 263.39084 lineto
23.469119 265.45334 lineto
22.291384 265.45334 lineto
22.291384 263.39084 lineto
18.342165 263.39084 lineto
18.342165 262.24826 lineto
21.980837 256.70529 lineto
fill
grestore
gsave
0 0 0 setrgbcolor
newpath
7.5288916 309.91412 moveto
9.4624853 309.91412 lineto
9.4624853 303.2403 lineto
7.3589697 303.66217 lineto
7.3589697 302.58405 lineto
9.4507666 302.16217 lineto
10.63436 302.16217 lineto
10.63436 309.91412 lineto
12.567954 309.91412 lineto
12.567954 310.91022 lineto
7.5288916 310.91022 lineto
7.5288916 309.91412 lineto
fill
grestore
gsave
0 0 0 setrgbcolor
newpath
16.72811 302.16217 moveto
17.724204 302.16217 lineto
14.677329 312.0235 lineto
13.681235 312.0235 lineto
16.72811 302.16217 lineto
fill
grestore
gsave
0 0 0 setrgbcolor
newpath
21.550376 306.75592 moveto
20.987873 306.75592 20.544514 306.90632 20.220298 307.20709 curveto
19.899983 307.50788 19.739827 307.92194 19.739829 308.44928 curveto
19.739827 308.97663 19.899983 309.39069 20.220298 309.69147 curveto
20.544514 309.99225 20.987873 310.14264 21.550376 310.14264 curveto
22.112872 310.14264 22.55623 309.99225 22.880454 309.69147 curveto
23.204667 309.38678 23.366777 308.97272 23.366782 308.44928 curveto
23.366777 307.92194 23.204667 307.50788 22.880454 307.20709 curveto
22.560137 306.90632 22.116778 306.75592 21.550376 306.75592 curveto
20.366782 306.25201 moveto
19.858968 306.12702 19.462484 305.89069 19.177329 305.54303 curveto
18.896078 305.19538 18.755453 304.77155 18.755454 304.27155 curveto
18.755453 303.57233 19.0035 303.0196 19.499595 302.61334 curveto
19.999592 302.2071 20.683185 302.00398 21.550376 302.00397 curveto
22.421465 302.00398 23.105058 302.2071 23.601157 302.61334 curveto
24.097245 303.0196 24.345291 303.57233 24.345298 304.27155 curveto
24.345291 304.77155 24.202713 305.19538 23.917563 305.54303 curveto
23.636308 305.89069 23.24373 306.12702 22.739829 306.25201 curveto
23.310136 306.38483 23.753495 306.6446 24.069907 307.03131 curveto
24.390213 307.41803 24.550369 307.89069 24.550376 308.44928 curveto
24.550369 309.29694 24.290604 309.94733 23.771079 310.40045 curveto
23.255449 310.85358 22.515215 311.08014 21.550376 311.08014 curveto
20.585529 311.08014 19.843343 310.85358 19.323813 310.40045 curveto
18.808187 309.94733 18.550375 309.29694 18.550376 308.44928 curveto
18.550375 307.89069 18.710531 307.41803 19.030845 307.03131 curveto
19.351156 306.6446 19.796468 306.38483 20.366782 306.25201 curveto
19.933188 304.38287 moveto
19.933186 304.836 20.073811 305.18952 20.355063 305.44342 curveto
20.640217 305.69733 21.038654 305.82428 21.550376 305.82428 curveto
22.058184 305.82428 22.454668 305.69733 22.739829 305.44342 curveto
23.028886 305.18952 23.173417 304.836 23.173423 304.38287 curveto
23.173417 303.92976 23.028886 303.57624 22.739829 303.32233 curveto
22.454668 303.06843 22.058184 302.94148 21.550376 302.94147 curveto
21.038654 302.94148 20.640217 303.06843 20.355063 303.32233 curveto
20.073811 303.57624 19.933186 303.92976 19.933188 304.38287 curveto
fill
grestore
grestore
showpage
%%EOF
